{
  "project_info": {
    "project_number": "60853656490",
    "firebase_url": "https://myassignment-c7478.firebaseio.com",
    "project_id": "myassignment-c7478",
    "storage_bucket": "myassignment-c7478.appspot.com"
  },
  "client": [
    {
      "client_info": {
        "mobilesdk_app_id": "1:60853656490:android:311e6435f0c3e59f1d29d3",
        "android_client_info": {
          "package_name": "com.example.myassignment"
        }
      },
      "oauth_client": [
        {
          "client_id": "60853656490-7hqdgh944ctc4lkvtq50hr9ftt3fvukq.apps.googleusercontent.com",
          "client_type": 1,
          "android_info": {
            "package_name": "com.example.myassignment",
            "certificate_hash": "a63dbaffb556b4062d45fc68d4e86f92de9198e5"
          }
        },
        {
          "client_id": "60853656490-mocd6lq4eejbgk3d5n1hr1jmtf0jo4qa.apps.googleusercontent.com",
          "client_type": 3
        }
      ],
      "api_key": [
        {
          "current_key": "AIzaSyD-pYuuHfCBnKnhLgL2-P6T0XS5moOIbjw"
        }
      ],
      "services": {
        "appinvite_service": {
          "other_platform_oauth_client": [
            {
              "client_id": "60853656490-mocd6lq4eejbgk3d5n1hr1jmtf0jo4qa.apps.googleusercontent.com",
              "client_type": 3
            }
          ]
        }
      }
    }
  ],
  "configuration_version": "1"
}